"name","employee_id","building_code","floor_number","salary","department"
"Fernando Shanahan","788048067","0","GROUND","788048067","Beauty, Jewelry & Music"
"Bernie Murray","1051890381","1","FIRST","1051890381","Sports"
"Darrel Lakin","2079743503","2","SECOND","2079743503","Games"
"Daisey Wuckert","268620232","3","THIRD","268620232","Industrial & Movies"
"Mrs. Corliss Torphy","495113052","4","FOURTH","495113052","Automotive, Industrial & Toys"
"Greg Becker","1516507032","5","FIFTH","1516507032","Movies"
"Miss Darwin Welch","243977724","6","GROUND","243977724","Movies"
"Miss Minh Moore","1431732541","7","FIRST","1431732541","Home"
"Dr. David Roob","463189734","8","SECOND","463189734","Home, Jewelry & Shoes"
"Daryl Herman MD","509024006","9","THIRD","509024006","Health, Outdoors & Shoes"
"Dr. Bernardo Hegmann","1272143679","0","FOURTH","1272143679","Automotive & Home"
"Christi Ziemann","1958898586","1","FIFTH","1958898586","Automotive & Movies"
"Robin Thompson","1227829817","2","GROUND","1227829817","Electronics, Home & Shoes"
"Santo Moen","1942304864","3","FIRST","1942304864","Jewelry"
"Elwanda Dickens","729603143","4","SECOND","729603143","Games, Health & Movies"
"George Schiller","346272079","5","THIRD","346272079","Home"
"Arnoldo Smith","859681761","6","FOURTH","859681761","Industrial"
"Anderson Lockman","1129581518","7","FIFTH","1129581518","Baby & Beauty"
"Ms. Samella Kerluke","121465633","8","GROUND","121465633","Automotive, Games & Outdoors"
"Ruby Schowalter Jr.","2112879725","9","FIRST","2112879725","Automotive & Kids"
"Hunter Kuphal Sr.","1220983827","0","SECOND","1220983827","Industrial & Jewelry"
"Mrs. Dwain Lemke","259933996","1","THIRD","259933996","Beauty, Books & Movies"
"Miss Scott Langosh","893351484","2","FOURTH","893351484","Clothing & Outdoors"
"Adriana Hickle","576860953","3","FIFTH","576860953","Industrial"
"Corrin Grady","1086206575","4","GROUND","1086206575","Health & Sports"
"Rene Gerlach","447611848","5","FIRST","447611848","Grocery, Movies & Tools"
"Rosendo Batz PhD","1060885728","6","SECOND","1060885728","Baby"
"Anita Skiles","1829293148","7","THIRD","1829293148","Health"
"Rebeca West","1192673952","8","FOURTH","1192673952","Clothing & Music"
"Miss Kandra Roob","59013325","9","FIFTH","59013325","Computers, Garden & Shoes"
"Markus Waelchi","1486350188","0","GROUND","1486350188","Sports"
"Miss Duane Legros","839650827","1","FIRST","839650827","Electronics, Industrial & Outdoors"
"Franklin Ullrich","94108487","2","SECOND","94108487","Industrial"
"Marcela Crist","561413763","3","THIRD","561413763","Jewelry, Kids & Music"
"Lakesha Treutel DVM","1939124600","4","FOURTH","1939124600","Books, Music & Outdoors"
"Inell Hammes","1726637023","5","FIFTH","1726637023","Books"
"Marla Gerlach III","1570295352","6","GROUND","1570295352","Garden"
"Kendall Jones","136032154","7","FIRST","136032154","Baby, Grocery & Sports"
"Laree Kertzmann","301403682","8","SECOND","301403682","Sports"
"Merry Hudson V","1687358550","9","THIRD","1687358550","Automotive"
"Dr. Danilo Pagac","1404351102","0","FOURTH","1404351102","Sports"
"Gracie Bins","2129127305","1","FIFTH","2129127305","Garden"
"Lou Homenick","953927846","2","GROUND","953927846","Health"
"Collette Bernhard","259991961","3","FIRST","259991961","Health"
"Santos Heidenreich","603354010","4","SECOND","603354010","Garden, Home & Jewelry"
"Rosario Herman","725394633","5","THIRD","725394633","Books, Garden & Tools"
"Chet Trantow","692178933","6","FOURTH","692178933","Garden, Movies & Music"
"Rigoberto Powlowski","321324061","7","FIFTH","321324061","Computers"
"Patty Kling","233143390","8","GROUND","233143390","Music"
"Tracy Nikolaus","159017322","9","FIRST","159017322","Beauty & Clothing"
"Dr. Martin Mraz","1716064808","0","SECOND","1716064808","Automotive"
"Preston Thiel","560793836","1","THIRD","560793836","Industrial"
"Dr. Brooks Pollich","362775440","2","FOURTH","362775440","Books"
"Edward Kuvalis","1401719615","3","FIFTH","1401719615","Health & Tools"
"Gustavo Torp","1613392386","4","GROUND","1613392386","Tools"
"Jospeh Lakin I","1978089928","5","FIRST","1978089928","Outdoors"
"Marti Schumm Sr.","2146585023","6","SECOND","2146585023","Automotive & Computers"
"Mrs. Rodger Shanahan","1585769833","7","THIRD","1585769833","Games"
"Dr. Richard Rice","322049392","8","FOURTH","322049392","Baby"
"Kendall Torp","1258700104","9","FIFTH","1258700104","Shoes"
"Mrs. Svetlana Smith","1668831560","0","GROUND","1668831560","Grocery"
"Timothy Abernathy","115905395","1","FIRST","115905395","Computers, Electronics & Health"
"Charley Hintz","1622369450","2","SECOND","1622369450","Health, Movies & Music"
"Obdulia Barrows","1817206231","3","THIRD","1817206231","Baby, Garden & Music"
"Maria Shields","1204658692","4","FOURTH","1204658692","Baby & Kids"
"Angla Donnelly","415991212","5","FIFTH","415991212","Tools"
"Napoleon McGlynn","1603558837","6","GROUND","1603558837","Clothing, Industrial & Shoes"
"Kasey Yundt","725705473","7","FIRST","725705473","Electronics"
"Sam Thompson","260667131","8","SECOND","260667131","Books & Industrial"
"Donya Greenholt","202404303","9","THIRD","202404303","Grocery, Industrial & Sports"
"Tristan Bednar DVM","1870286528","0","FOURTH","1870286528","Computers, Garden & Shoes"
"Bruno Robel","2122690242","1","FIFTH","2122690242","Garden"
"Leana Murray","363256490","2","GROUND","363256490","Computers, Home & Tools"
"Sean Parisian","497526308","3","FIRST","497526308","Shoes"
"Chung Kiehn","65436397","4","SECOND","65436397","Beauty"
"Abdul Koepp","1686792078","5","THIRD","1686792078","Games"
"Miss Kent Carter","695749647","6","FOURTH","695749647","Baby"
"Valrie Schmidt Sr.","1327350739","7","FIFTH","1327350739","Books, Garden & Sports"
"Dr. Jordan Gusikowski","23333803","8","GROUND","23333803","Home"
"Tianna Pollich","883061274","9","FIRST","883061274","Beauty"
"Noe Nikolaus","1930723689","0","SECOND","1930723689","Baby & Computers"
"Kaylee Kertzmann","1104464741","1","THIRD","1104464741","Books, Garden & Industrial"
"Mrs. Alan Bergnaum","414902088","2","FOURTH","414902088","Movies"
"Reena Deckow V","1291102885","3","FIFTH","1291102885","Beauty & Music"
"Ms. Crysta Baumbach","1843628268","4","GROUND","1843628268","Automotive & Electronics"
"Claudine McClure MD","722833313","5","FIRST","722833313","Games"
"Miss Karisa Jenkins","292075019","6","SECOND","292075019","Electronics, Grocery & Health"
"Nicolas Bogisich I","1887602560","7","THIRD","1887602560","Baby"
"Jamie Herzog V","1755814547","8","FOURTH","1755814547","Baby & Garden"
"Toney Parker","158989375","9","FIFTH","158989375","Computers, Grocery & Movies"
"Stefany Lueilwitz","1658434609","0","GROUND","1658434609","Books"
"Preston Kovacek","1133325942","1","FIRST","1133325942","Grocery"
"Miss Israel Wiza","1603648169","2","SECOND","1603648169","Garden"
"Williams Howell II","1018395254","3","THIRD","1018395254","Books"
"Amber Rippin Jr.","1492317701","4","FOURTH","1492317701","Books"
"Debbi Rau DVM","2052854474","5","FIFTH","2052854474","Industrial"
"Cesar Schmidt","1591521899","6","GROUND","1591521899","Toys"
"Crystle Lehner","1318565079","7","FIRST","1318565079","Garden"
"Rory Hickle","1564150225","8","SECOND","1564150225","Shoes"
"Dr. Aldo Purdy","1311716883","9","THIRD","1311716883","Garden"
